<?xml version="1.0" encoding="utf-8"?>
<!-- Generator: Adobe Illustrator 15.0.0, SVG Export Plug-In . SVG Version: 6.00 Build 0)  -->
<!DOCTYPE svg PUBLIC "-//W3C//DTD SVG 1.1//EN" "http://www.w3.org/Graphics/SVG/1.1/DTD/svg11.dtd">
<svg version="1.1" xmlns="http://www.w3.org/2000/svg" xmlns:xlink="http://www.w3.org/1999/xlink" x="0px" y="0px" width="180px"
	 height="25px" viewBox="0 0 180 25" enable-background="new 0 0 180 25" xml:space="preserve">
<g id="Layer_1" display="none">
	<image display="inline" overflow="visible" width="180" height="25" xlink:href="../have-your-say-top.png" >
	</image>
</g>
<g id="Layer_2">
	<polygon fill="#FDA438" points="180,25 0,0 0,25 180,25 	"/>
</g>
</svg>
